date,region,value
2020-03-06,"PERÚ",1
2020-03-07,"PERÚ",6
2020-03-08,"PERÚ",8
2020-03-09,"PERÚ",11
2020-03-10,"PERÚ",12
2020-03-11,"PERÚ",20
2020-03-12,"PERÚ",28
2020-03-13,"PERÚ",39
2020-03-14,"PERÚ",58
2020-03-15,"PERÚ",86
2020-03-16,"PERÚ",106
2020-03-17,"PERÚ",135
2020-03-18,"PERÚ",193
2020-03-19,"PERÚ",256
2020-03-20,"PERÚ",313
2020-03-21,"PERÚ",344
2020-03-22,"PERÚ",383
2020-03-23,"PERÚ",416
2020-03-24,"PERÚ",480
2020-03-25,"PERÚ",580
2020-03-26,"PERÚ",634
2020-03-27,"PERÚ",669
2020-03-28,"PERÚ",807
2020-03-29,"PERÚ",950
2020-03-30,"PERÚ",1065
2020-03-31,"PERÚ",1319
2020-04-01,"PERÚ",1414
2020-04-02,"PERÚ",1594
2020-04-03,"PERÚ",1756
2020-04-04,"PERÚ",2281
2020-04-05,"PERÚ",2561
2020-04-06,"PERÚ",2954
2020-04-07,"PERÚ",4342
2020-04-08,"PERÚ",5256
2020-04-09,"PERÚ",5897
2020-04-10,"PERÚ",6848
2020-04-11,"PERÚ",7519
2020-04-12,"PERÚ",9784
2020-04-13,"PERÚ",10303
2020-04-14,"PERÚ",11475
2020-04-15,"PERÚ",12491
2020-04-16,"PERÚ",13489
2020-04-17,"PERÚ",14420
2020-04-18,"PERÚ",15628
2020-04-19,"PERÚ",16325
2020-04-20,"PERÚ",17837
2020-04-21,"PERÚ",19250
2020-04-22,"PERÚ",20914
2020-04-23,"PERÚ",21648
2020-04-24,"PERÚ",25331
2020-04-25,"PERÚ",27517
2020-04-26,"PERÚ",28699
2020-04-27,"PERÚ",31190
2020-04-28,"PERÚ",33931
2020-04-29,"PERÚ",36976
2020-04-30,"PERÚ",40459
2020-05-01,"PERÚ",42534
2020-05-02,"PERÚ",45928
2020-05-03,"PERÚ",47372
2020-05-04,"PERÚ",51189
2020-05-05,"PERÚ",54816
2020-05-06,"PERÚ",54817
2020-05-07,"PERÚ",58526
2020-05-08,"PERÚ",61847
2020-05-09,"PERÚ",65015
2020-05-10,"PERÚ",67307
2020-05-11,"PERÚ",68822
2020-05-12,"PERÚ",72059
2020-05-13,"PERÚ",76306
2020-05-14,"PERÚ",80604
2020-05-15,"PERÚ",84495
2020-05-16,"PERÚ",88541
2020-05-17,"PERÚ",92273
2020-05-18,"PERÚ",94933
2020-05-19,"PERÚ",99483
2020-05-20,"PERÚ",104020
2020-05-21,"PERÚ",108769
2020-05-22,"PERÚ",111698
2020-05-23,"PERÚ",115754
2020-05-24,"PERÚ",119959
2020-05-25,"PERÚ",123979
2020-05-26,"PERÚ",129751
2020-05-27,"PERÚ",135905
2020-05-28,"PERÚ",141779
2020-05-29,"PERÚ",148285
2020-05-30,"PERÚ",155671
2020-05-31,"PERÚ",164476
2020-06-01,"PERÚ",170039
2020-06-02,"PERÚ",178165
2020-06-03,"PERÚ",178914
2020-06-04,"PERÚ",183198
2020-06-05,"PERÚ",187400
2020-06-06,"PERÚ",191758
2020-06-07,"PERÚ",196515
2020-06-08,"PERÚ",199696
2020-06-09,"PERÚ",203736
2020-06-12,"PERÚ",220749
2020-06-13,"PERÚ",225132
2020-06-14,"PERÚ",229736
2020-06-15,"PERÚ",232992
2020-06-16,"PERÚ",237156
2020-06-17,"PERÚ",240908
2020-06-18,"PERÚ",244388
2020-06-19,"PERÚ",247925
2020-06-20,"PERÚ",251338
2020-06-21,"PERÚ",254936
2020-06-22,"PERÚ",257447
2020-06-23,"PERÚ",260810
2020-06-24,"PERÚ",264689
2020-06-25,"PERÚ",268602
2020-06-26,"PERÚ",272364
2020-06-27,"PERÚ",275989
2020-06-28,"PERÚ",279419
2020-06-29,"PERÚ",282365
2020-06-30,"PERÚ",285213
2020-07-01,"PERÚ",288477
2020-07-02,"PERÚ",292004
2020-07-03,"PERÚ",295599
2020-07-04,"PERÚ",299080
2020-07-05,"PERÚ",302718
2020-07-06,"PERÚ",305703
2020-07-07,"PERÚ",309278
2020-07-08,"PERÚ",312911
2020-07-09,"PERÚ",316448
2020-07-10,"PERÚ",319646
2020-07-11,"PERÚ",322710
2020-07-12,"PERÚ",326326
2020-07-13,"PERÚ",330123
2020-07-14,"PERÚ",333867
2020-07-15,"PERÚ",337751
2020-07-16,"PERÚ",341586
2020-07-19,"PERÚ",353590
2020-07-20,"PERÚ",357681
2020-07-21,"PERÚ",362087
2020-07-22,"PERÚ",366550
2020-07-23,"PERÚ",371096
2020-07-24,"PERÚ",375961
2020-07-27,"PERÚ",389717
2020-07-28,"PERÚ",395005
2020-07-29,"PERÚ",400683
2020-07-30,"PERÚ",407492
2020-08-01,"PERÚ",422183
2020-08-02,"PERÚ",428850
2020-08-03,"PERÚ",433100
2020-08-04,"PERÚ",439890
2020-08-05,"PERÚ",447624
2020-08-06,"PERÚ",455409
2020-08-07,"PERÚ",463875
2020-08-08,"PERÚ",471012
2020-08-09,"PERÚ",478024
2020-08-10,"PERÚ",483133
